{
  "C:\\Program Files\\Java\\jdk1.8.0_05\\jre\\lib\\rt.jar": {
    "location": "C:\\Program Files\\Java\\jdk1.8.0_05\\jre\\lib\\rt.jar",
    "status": "UNRESOLVED",
    "error": "No call model found for \u0027C:\\Program Files\\Java\\jdk1.8.0_05\\jre\\lib\\rt.jar\u0027. Neither fingerprint \u0027b36aa138eb8318839c8dd6f30e991fcc57e9b4bd\u0027 nor symbolic name \u0027jre\u0027 are known."
  }
}