[A1] Estoy listo Capitan
[S4] Estoy listo
[S5] Estoy listo
[M2] Estoy listo
[S2] Estoy listo
[A2] Estoy listo
[S3] Estoy listo
[A3] Estoy listo
[Messaging] Removing all local alias entries for agent MedicPack_4
[Messaging] Removing all local alias entries for agent MedicPack_2
[Messaging] Removing all local alias entries for agent MedicPack_3
[T5] Finished!
[Messaging] Removing all local alias entries for agent T5
[T4] Could not finish intention:     ?my_health(Health); (NewHealth = (Health-Bullets)); -+my_health(NewHealth); ?debug(Mode); .if_then_else((Mode <= 1),{ .println("HE RECIBIDO ",Bullets," DISPAROS. Mi salud es :",NewHealth) }); !!perform_injury_action; !performThresholdAction; -shooting_to_me(_864)[source(M)] / {M=Manager, Health=49, Bullets=2}
    +CA / {Sender=Manager, _915=noid, Content=shooting_to_me(2), CA=shooting_to_me(2)[source(Manager)]}

[Messaging] Removing all local alias entries for agent MedicPack_1
[T2] Finished!
[Messaging] Removing all local alias entries for agent T2
[A2] LA TENGO
[S2] No failure event was generated for +!performThresholdAction[source(self)]
[S5] ENTRO
[S5] No failure event was generated for +!performThresholdAction[source(self)]
[S4] ENTRO
[S5] Communication error -- ia_failed: 
[Messaging] Removing all local alias entries for agent MedicPack_5
[S5] Communication error -- ia_failed: 
[S2] No failure event was generated for +!performThresholdAction[source(self)]
[S5] ENTRO
[S5] No failure event was generated for +!performThresholdAction[source(self)]
[S4] ENTRO
[S4] Communication error -- ia_failed: 
[Messaging] Removing all local alias entries for agent MedicPack_6
[S2] No failure event was generated for +!performThresholdAction[source(self)]
[S4] Communication error -- ia_failed: 
[S5] ENTRO
[S5] No failure event was generated for +!performThresholdAction[source(self)]
[S4] ENTRO
[S4] No failure event was generated for +!performThresholdAction[source(self)]
[S2] Communication error -- ia_failed: 
[Messaging] Removing all local alias entries for agent MedicPack_8
[S2] No failure event was generated for +!performThresholdAction[source(self)]
[S5] No failure event was generated for +!performThresholdAction[source(self)]
[S4] ENTRO
[Messaging] Removing all local alias entries for agent AmoPack_9
[S2] No failure event was generated for +!performThresholdAction[source(self)]
[Messaging] Removing all local alias entries for agent AmoPack_10
[S5] ENTRO
[S5] No failure event was generated for +!performThresholdAction[source(self)]
[Messaging] Removing all local alias entries for agent AmoPack_11
[S4] ENTRO
[S2] ENTRO
[Messaging] Removing all local alias entries for agent AmoPack_12
[S5] ENTRO
[S5] No failure event was generated for +!performThresholdAction[source(self)]
[S4] ENTRO
[Messaging] Removing all local alias entries for agent MedicPack_7
[S2] ENTRO
[S5] ENTRO
[S5] No failure event was generated for +!performThresholdAction[source(self)]
[S4] ENTRO
[S2] ENTRO
[S5] ENTRO
[S2] No failure event was generated for +!performThresholdAction[source(self)]
[S5] No failure event was generated for +!performThresholdAction[source(self)]
[S4] ENTRO
[S2] ENTRO
[T7] Finished!
[S5] ENTRO
[Messaging] Removing all local alias entries for agent T7
[S2] No failure event was generated for +!performThresholdAction[source(self)]
[Messaging] Removing all local alias entries for agent AmoPack_14
[S4] ENTRO
[S5] No failure event was generated for +!performThresholdAction[source(self)]
[S2] ENTRO
[S2] No failure event was generated for +!performThresholdAction[source(self)]
[Messaging] Removing all local alias entries for agent AmoPack_15
[S5] ENTRO
[S4] ENTRO
[S5] No failure event was generated for +!performThresholdAction[source(self)]
[Messaging] Removing all local alias entries for agent AmoPack_16
[S2] ENTRO
[S2] No failure event was generated for +!performThresholdAction[source(self)]
[S5] ENTRO
[S4] ENTRO
[S5] No failure event was generated for +!performThresholdAction[source(self)]
[S2] ENTRO
[S5] ENTRO
[S2] No failure event was generated for +!performThresholdAction[source(self)]
[S5] No failure event was generated for +!performThresholdAction[source(self)]
[S4] ENTRO
[Messaging] Removing all local alias entries for agent AmoPack_13
[S2] ENTRO
[S5] ENTRO
[S2] No failure event was generated for +!performThresholdAction[source(self)]
[S5] No failure event was generated for +!performThresholdAction[source(self)]
[S4] ENTRO
[T1] Finished!
[Messaging] Removing all local alias entries for agent T1
[S5] ENTRO
[S2] ENTRO
[S5] No failure event was generated for +!performThresholdAction[source(self)]
[S2] No failure event was generated for +!performThresholdAction[source(self)]
[S4] ENTRO
[S5] ENTRO
[S2] ENTRO
[S4] ENTRO
[S2] Communication error -- ia_failed: 
[S3] Communication error -- ia_failed: 
[S3] No failure event was generated for +!performThresholdAction[source(self)]
[S5] No failure event was generated for +!performThresholdAction[source(self)]
[S2] No failure event was generated for +!performThresholdAction[source(self)]
[S3] No failure event was generated for +!performThresholdAction[source(self)]
[S5] No failure event was generated for +!performThresholdAction[source(self)]
[S2] No failure event was generated for +!performThresholdAction[source(self)]
[S3] No failure event was generated for +!performThresholdAction[source(self)]
[S5] No failure event was generated for +!performThresholdAction[source(self)]
[S2] No failure event was generated for +!performThresholdAction[source(self)]
[S5] No failure event was generated for +!performThresholdAction[source(self)]
[S2] No failure event was generated for +!performThresholdAction[source(self)]
[Messaging] Removing all local alias entries for agent AmoPack_19
[Messaging] Removing all local alias entries for agent AmoPack_18
[S5] No failure event was generated for +!performThresholdAction[source(self)]
[S2] No failure event was generated for +!performThresholdAction[source(self)]
[Messaging] Removing all local alias entries for agent AmoPack_20
[S5] No failure event was generated for +!performThresholdAction[source(self)]
[S2] No failure event was generated for +!performThresholdAction[source(self)]
[T3] Finished!
[Messaging] Removing all local alias entries for agent T3
[S5] No failure event was generated for +!performThresholdAction[source(self)]
[S2] No failure event was generated for +!performThresholdAction[source(self)]
[S5] No failure event was generated for +!performThresholdAction[source(self)]
[S2] No failure event was generated for +!performThresholdAction[source(self)]
[S5] No failure event was generated for +!performThresholdAction[source(self)]
[S2] No failure event was generated for +!performThresholdAction[source(self)]
[S5] No failure event was generated for +!performThresholdAction[source(self)]
[S2] No failure event was generated for +!performThresholdAction[source(self)]
[S5] No failure event was generated for +!performThresholdAction[source(self)]
[S2] No failure event was generated for +!performThresholdAction[source(self)]
[Messaging] Removing all local alias entries for agent AmoPack_21
[Messaging] Removing all local alias entries for agent AmoPack_25
[Messaging] Removing all local alias entries for agent AmoPack_27
[Messaging] Removing all local alias entries for agent AmoPack_24
[Messaging] Removing all local alias entries for agent AmoPack_22
[S5] No failure event was generated for +!performThresholdAction[source(self)]
[S3] Communication error -- ia_failed: 
[S2] No failure event was generated for +!performThresholdAction[source(self)]
[S5] No failure event was generated for +!performThresholdAction[source(self)]
[S2] No failure event was generated for +!performThresholdAction[source(self)]
[Messaging] Removing all local alias entries for agent AmoPack_26
[S2] No failure event was generated for +!performThresholdAction[source(self)]
[S5] No failure event was generated for +!performThresholdAction[source(self)]
[S2] No failure event was generated for +!performThresholdAction[source(self)]
[S5] No failure event was generated for +!performThresholdAction[source(self)]
[S2] No failure event was generated for +!performThresholdAction[source(self)]
[S5] No failure event was generated for +!performThresholdAction[source(self)]
[S2] No failure event was generated for +!performThresholdAction[source(self)]
[S5] No failure event was generated for +!performThresholdAction[source(self)]
[S2] No failure event was generated for +!performThresholdAction[source(self)]
[S5] No failure event was generated for +!performThresholdAction[source(self)]
[S2] No failure event was generated for +!performThresholdAction[source(self)]
[S5] No failure event was generated for +!performThresholdAction[source(self)]
[Messaging] Removing all local alias entries for agent AmoPack_28
[S2] No failure event was generated for +!performThresholdAction[source(self)]
[S5] No failure event was generated for +!performThresholdAction[source(self)]
[S2] No failure event was generated for +!performThresholdAction[source(self)]
[S5] No failure event was generated for +!performThresholdAction[source(self)]
[S2] No failure event was generated for +!performThresholdAction[source(self)]
[S5] No failure event was generated for +!performThresholdAction[source(self)]
[S2] No failure event was generated for +!performThresholdAction[source(self)]
[M2] No me puedo mover, regenerando ruta... 
[S5] No failure event was generated for +!performThresholdAction[source(self)]
[S2] No failure event was generated for +!performThresholdAction[source(self)]
[M2] No me puedo mover, regenerando ruta... 
[S5] No failure event was generated for +!performThresholdAction[source(self)]
[S2] No failure event was generated for +!performThresholdAction[source(self)]
[S5] No failure event was generated for +!performThresholdAction[source(self)]
[S2] No failure event was generated for +!performThresholdAction[source(self)]
[M2] No me puedo mover, regenerando ruta... 
[S5] No failure event was generated for +!performThresholdAction[source(self)]
[S2] No failure event was generated for +!performThresholdAction[source(self)]
[M2] No me puedo mover, regenerando ruta... 
[S5] No failure event was generated for +!performThresholdAction[source(self)]
[S2] No failure event was generated for +!performThresholdAction[source(self)]
[M2] No me puedo mover, regenerando ruta... 
[S5] No failure event was generated for +!performThresholdAction[source(self)]
[S2] No failure event was generated for +!performThresholdAction[source(self)]
[S5] No failure event was generated for +!performThresholdAction[source(self)]
[M2] No me puedo mover, regenerando ruta... 
[S2] No failure event was generated for +!performThresholdAction[source(self)]
[M2] No me puedo mover, regenerando ruta... 
[S5] No failure event was generated for +!performThresholdAction[source(self)]
[S2] No failure event was generated for +!performThresholdAction[source(self)]
[M2] No me puedo mover, regenerando ruta... 
[S5] No failure event was generated for +!performThresholdAction[source(self)]
[S2] No failure event was generated for +!performThresholdAction[source(self)]
[M2] No me puedo mover, regenerando ruta... 
[S5] No failure event was generated for +!performThresholdAction[source(self)]
[S2] No failure event was generated for +!performThresholdAction[source(self)]
[M2] No me puedo mover, regenerando ruta... 
[S5] No failure event was generated for +!performThresholdAction[source(self)]
[S2] No failure event was generated for +!performThresholdAction[source(self)]
[M2] No me puedo mover, regenerando ruta... 
[S5] No failure event was generated for +!performThresholdAction[source(self)]
[S2] No failure event was generated for +!performThresholdAction[source(self)]
[Messaging] Removing all local alias entries for agent MedicPack_29
[S5] No failure event was generated for +!performThresholdAction[source(self)]
[M2] No me puedo mover, regenerando ruta... 
[S2] No failure event was generated for +!performThresholdAction[source(self)]
[M2] No me puedo mover, regenerando ruta... 
[S5] No failure event was generated for +!performThresholdAction[source(self)]
[S2] No failure event was generated for +!performThresholdAction[source(self)]
[M2] No me puedo mover, regenerando ruta... 
[S5] No failure event was generated for +!performThresholdAction[source(self)]
[T8] Finished!
[Messaging] Removing all local alias entries for agent T8
[S2] No failure event was generated for +!performThresholdAction[source(self)]
[S5] No failure event was generated for +!performThresholdAction[source(self)]
[M2] No me puedo mover, regenerando ruta... 
[S2] No failure event was generated for +!performThresholdAction[source(self)]
[S5] No failure event was generated for +!performThresholdAction[source(self)]
[S2] No failure event was generated for +!performThresholdAction[source(self)]
[S5] No failure event was generated for +!performThresholdAction[source(self)]
[S2] No failure event was generated for +!performThresholdAction[source(self)]
[S5] No failure event was generated for +!performThresholdAction[source(self)]
[S2] No failure event was generated for +!performThresholdAction[source(self)]
[S5] No failure event was generated for +!performThresholdAction[source(self)]
[S2] No failure event was generated for +!performThresholdAction[source(self)]
[S5] No failure event was generated for +!performThresholdAction[source(self)]
[S2] No failure event was generated for +!performThresholdAction[source(self)]
[S5] No failure event was generated for +!performThresholdAction[source(self)]
[S5] No failure event was generated for +!performThresholdAction[source(self)]
[Messaging] Removing all local alias entries for agent AmoPack_17
[Messaging] Removing all local alias entries for agent AmoPack_23
